<svg width="1133" viewBox="0 0 1133 804" xmlns:xlink="http://www.w3.org/1999/xlink" xmlns:ev="http://www.w3.org/2001/xml-events" xmlns="http://www.w3.org/2000/svg" height="804"><style type="text/css"><![CDATA[
.st2 {fill:#000000;font-family:Arial;font-size:10pt}
.st1 {fill:#303030;font-family:Arial;font-size:10pt}
]]></style><defs><linearGradient x1="0%" x2="0%" y2="100%" id="lg1" y1="0%"><stop offset="0" stop-color="#fbfbfb"/><stop offset="1" stop-color="#efefef"/></linearGradient></defs><g id="page1" transform="translate(5,5)"><rect width="1123" y="0" fill="#ffffff" stroke="#808080" x="0" height="794"/><g id="shape1" transform="translate(132,363.3)"><path fill="#000000" fill-opacity="0.08" d="M13.4,9.6C13.4,5.4,16.8,2,21,2C25.2,2,28.6,5.4,28.6,9.6C28.6,13.8,25.2,17.2,21,17.2C16.8,17.2,13.4,13.8,13.4,9.6z"/><path fill="#ffffff" d="M11.4,7.6C11.4,3.4,14.8,-0,19,-0C23.2,-0,26.6,3.4,26.6,7.6C26.6,11.8,23.2,15.2,19,15.2C14.8,15.2,11.4,11.8,11.4,7.6z"/><path fill="none" stroke="#000000" d="M11.4,7.6C11.4,3.4,14.8,-0,19,-0C23.2,-0,26.6,3.4,26.6,7.6C26.6,11.8,23.2,15.2,19,15.2C14.8,15.2,11.4,11.8,11.4,7.6zM19,49.4L19,15.2M31.5,76L19,49.4L6.5,76M38,31.9L0,31.9"/><text class="st1"><tspan y="91.5" x="-24">Section Officer</tspan></text></g><g id="shape2" transform="translate(362,201)"><path fill="#000000" fill-opacity="0.08" d="M2,35C2,16.8,27.5,2,59,2C90.5,2,116,16.8,116,35C116,53.2,90.5,68,59,68C27.5,68,2,53.2,2,35z"/><path fill="url(#lg1)" stroke="#6d6d6d" d="M0,33C-0,14.8,25.5,0,57,0C88.5,0,114,14.8,114,33C114,51.2,88.5,66,57,66C25.5,66,0,51.2,0,33z"/><text class="st1"><tspan y="36.5" x="11">Access Account</tspan></text></g><g id="shape3" transform="translate(614,156)"><path fill="#000000" fill-opacity="0.08" d="M2,35C2,16.8,27.5,2,59,2C90.5,2,116,16.8,116,35C116,53.2,90.5,68,59,68C27.5,68,2,53.2,2,35z"/><path fill="url(#lg1)" stroke="#6d6d6d" d="M0,33C-0,14.8,25.5,0,57,0C88.5,0,114,14.8,114,33C114,51.2,88.5,66,57,66C25.5,66,0,51.2,0,33z"/><text class="st1"><tspan y="36.5" x="37">Sign In</tspan></text></g><g id="shape4" transform="translate(614,260)"><path fill="#000000" fill-opacity="0.08" d="M2,35C2,16.8,27.5,2,59,2C90.5,2,116,16.8,116,35C116,53.2,90.5,68,59,68C27.5,68,2,53.2,2,35z"/><path fill="url(#lg1)" stroke="#6d6d6d" d="M0,33C-0,14.8,25.5,0,57,0C88.5,0,114,14.8,114,33C114,51.2,88.5,66,57,66C25.5,66,0,51.2,0,33z"/><text class="st1"><tspan y="36.5" x="32">Sign Out</tspan></text></g><g id="shape5" transform="translate(363,300.5)"><path fill="#000000" fill-opacity="0.08" d="M2,38.5C2,18.3,27.5,2,59,2C90.5,2,116,18.3,116,38.5C116,58.7,90.5,75,59,75C27.5,75,2,58.7,2,38.5z"/><path fill="url(#lg1)" stroke="#6d6d6d" d="M0,36.5C-0,16.3,25.5,-0,57,-0C88.5,-0,114,16.3,114,36.5C114,56.7,88.5,73,57,73C25.5,73,0,56.7,0,36.5z"/><text class="st1"><tspan y="25" x="29">Show File </tspan><tspan y="40" x="23">Transaction </tspan><tspan y="55" x="37">History</tspan></text></g><g id="shape6" transform="translate(363,397)"><path fill="#000000" fill-opacity="0.08" d="M2,35C2,16.8,27.5,2,59,2C90.5,2,116,16.8,116,35C116,53.2,90.5,68,59,68C27.5,68,2,53.2,2,35z"/><path fill="url(#lg1)" stroke="#6d6d6d" d="M0,33C-0,14.8,25.5,0,57,0C88.5,0,114,14.8,114,33C114,51.2,88.5,66,57,66C25.5,66,0,51.2,0,33z"/><text class="st1"><tspan y="36.5" x="25">Create File</tspan></text></g><g id="shape7" transform="translate(363,496)"><path fill="#000000" fill-opacity="0.08" d="M2,35C2,16.8,27.5,2,59,2C90.5,2,116,16.8,116,35C116,53.2,90.5,68,59,68C27.5,68,2,53.2,2,35z"/><path fill="url(#lg1)" stroke="#6d6d6d" d="M0,33C-0,14.8,25.5,-0,57,-0C88.5,-0,114,14.8,114,33C114,51.2,88.5,66,57,66C25.5,66,0,51.2,0,33z"/><text class="st1"><tspan y="29" x="19">Show Arrived </tspan><tspan y="44" x="43">Files</tspan></text></g><g id="shape8" transform="translate(614,496)"><path fill="#000000" fill-opacity="0.08" d="M2,35C2,16.8,27.5,2,59,2C90.5,2,116,16.8,116,35C116,53.2,90.5,68,59,68C27.5,68,2,53.2,2,35z"/><path fill="url(#lg1)" stroke="#6d6d6d" d="M0,33C-0,14.8,25.5,0,57,0C88.5,0,114,14.8,114,33C114,51.2,88.5,66,57,66C25.5,66,0,51.2,0,33z"/><text class="st1"><tspan y="36.5" x="19">Dispatch File</tspan></text></g><g id="shape9" transform="translate(363,595)"><path fill="#000000" fill-opacity="0.08" d="M2,35C2,16.8,27.5,2,59,2C90.5,2,116,16.8,116,35C116,53.2,90.5,68,59,68C27.5,68,2,53.2,2,35z"/><path fill="url(#lg1)" stroke="#6d6d6d" d="M0,33C-0,14.8,25.5,-0,57,-0C88.5,-0,114,14.8,114,33C114,51.2,88.5,66,57,66C25.5,66,0,51.2,0,33z"/><text class="st1"><tspan y="29" x="18">View Created </tspan><tspan y="44" x="43">Files</tspan></text></g><g id="shape10" transform="translate(614,595)"><path fill="#000000" fill-opacity="0.08" d="M2,35C2,16.8,27.5,2,59,2C90.5,2,116,16.8,116,35C116,53.2,90.5,68,59,68C27.5,68,2,53.2,2,35z"/><path fill="url(#lg1)" stroke="#6d6d6d" d="M0,33C-0,14.8,25.5,0,57,0C88.5,0,114,14.8,114,33C114,51.2,88.5,66,57,66C25.5,66,0,51.2,0,33z"/><text class="st1"><tspan y="29" x="29">Show File </tspan><tspan y="44" x="25">Information</tspan></text></g><g id="shape11" transform="translate(250,93.3)"><path fill="none" stroke="#000000" d="M0,0L643,0L643,616L0,616L0,0z"/><text class="st1"><tspan y="27.1" x="261">File Tracking System</tspan></text></g><g id="shape12" transform="translate(477,628)"><path fill="none" stroke-dasharray="2,5" stroke="#000000" d="M0,0L137,0"/><path stroke-width="1" fill="none" stroke-linecap="round" stroke-linejoin="round" stroke="#000000" d="M12,6L0,0L12,-6"/><text class="st2"><tspan y="-7.8" x="30.6">&lt;&lt;extends>></tspan></text></g><g id="shape13" transform="translate(477,529)"><path fill="none" stroke-dasharray="2,5" stroke="#000000" d="M0,0L137,0"/><path stroke-width="1" fill="none" stroke-linecap="round" stroke-linejoin="round" stroke="#000000" d="M12,6L0,0L12,-6"/><text class="st2"><tspan y="-7.8" x="30.6">&lt;&lt;extends>></tspan></text></g><g id="shape14" transform="translate(614,293)"><path fill="none" stroke="#000000" d="M0,0L-130.6,-55.9"/><path stroke-width="1" fill="none" stroke-linecap="round" stroke-linejoin="round" stroke="#000000" d="M-138,-59L-132.2,-52.2L-129.1,-59.5L-138,-59"/></g><g id="shape15" transform="translate(614,189)"><path fill="none" stroke="#000000" d="M0,0L-130.4,42.5"/><path stroke-width="1" fill="none" stroke-linecap="round" stroke-linejoin="round" stroke="#000000" d="M-138,45L-129.2,46.3L-131.6,38.7L-138,45"/></g><path fill="none" stroke="#000000" id="shape16" transform="matrix(0.75,-0.66,0.66,0.75,170,401.3)" d="M0,0L254.7,0"/><path fill="none" stroke="#000000" id="shape17" transform="matrix(0.95,-0.32,0.32,0.95,170,401.3)" d="M0,0L203.4,0"/><path fill="none" stroke="#000000" id="shape18" transform="matrix(0.99,0.15,-0.15,0.99,170,401.3)" d="M0,0L195.1,0"/><path fill="none" stroke="#000000" id="shape19" transform="matrix(0.83,0.55,-0.55,0.83,170,401.3)" d="M0,0L231.4,0"/><path fill="none" stroke="#000000" id="shape20" transform="matrix(0.65,0.76,-0.76,0.65,170,401.3)" d="M0,0L297.7,0"/></g></svg>