<svg width="1133" xmlns="http://www.w3.org/2000/svg" xmlns:xlink="http://www.w3.org/1999/xlink" height="804" xmlns:ev="http://www.w3.org/2001/xml-events" viewBox="0 0 1133 804"><style type="text/css"><![CDATA[
.st2 {fill:#000000;font-family:Arial;font-size:10pt}
.st1 {fill:#303030;font-family:Arial;font-size:10pt}
]]></style><defs><linearGradient id="lg1" x2="0%" x1="0%" y2="100%" y1="0%"><stop stop-color="#fbfbfb" offset="0"/><stop stop-color="#efefef" offset="1"/></linearGradient></defs><g id="page1" transform="translate(5,5)"><rect width="1123" fill="#ffffff" y="0" x="0" height="794" stroke="#808080"/><g id="shape1" transform="translate(489.39,60.69)"><path fill="#000000" fill-opacity="0.08" d="M2,13.3C2,7,7,2,13.3,2C19.5,2,24.5,7,24.5,13.3C24.5,19.5,19.5,24.5,13.3,24.5C7,24.5,2,19.5,2,13.3z"/><path fill="url(#lg1)" d="M0,11.3C0,5,5,0,11.3,0C17.5,0,22.5,5,22.5,11.3C22.5,17.5,17.5,22.5,11.3,22.5C5,22.5,0,17.5,0,11.3z" stroke="#6d6d6d"/></g><g transform="translate(487.41,707.02)"><path fill="#000000" fill-opacity="0.08" d="M2,2L28,2L28,28L2,28L2,2z"/><path fill="url(#lg1)" id="shape2" transform="translate(0.28,0.04)" d="M0,13C0,5.8,5.8,0,13,0C20.1,0,25.9,5.8,25.9,13C25.9,20.1,20.1,25.9,13,25.9C5.8,25.9,0,20.1,0,13z" stroke="#6d6d6d"/><path fill="url(#lg1)" id="shape3" transform="translate(3.25,3.25)" d="M0,9.8C0,4.4,4.4,0,9.8,0C15.1,0,19.5,4.4,19.5,9.8C19.5,15.1,15.1,19.5,9.8,19.5C4.4,19.5,0,15.1,0,9.8z" stroke="#6d6d6d"/></g><g id="shape4" transform="translate(420.65,122)"><path fill="#000000" fill-opacity="0.08" d="M142.8,41.7C153.4,41.7,162,33.1,162,22.5L162,21.2C162,10.6,153.4,2,142.8,2L21.2,2C10.6,2,2,10.6,2,21.2L2,22.5C2,33.1,10.6,41.7,21.2,41.7L142.8,41.7z"/><path fill="url(#lg1)" d="M140.8,39.7C151.4,39.7,160,31.1,160,20.5L160,19.2C160,8.6,151.4,0,140.8,0L19.2,0C8.6,0,0,8.6,0,19.2L0,20.5C0,31.1,8.6,39.7,19.2,39.7L140.8,39.7z" stroke="#6d6d6d"/><text class="st1"><tspan y="23.3" x="21">Dispatch file request</tspan></text></g><g id="shape5" transform="translate(442.85,195.45)"><path fill="#000000" fill-opacity="0.08" d="M60.1,92.6L118.1,47.3L60.1,2L2,47.3L60.1,92.6z"/><path fill="url(#lg1)" d="M58.1,90.6L116.1,45.3L58.1,0L0,45.3L58.1,90.6z" stroke="#6d6d6d"/><text class="st1"><tspan y="48.8" x="10.8">Select file status</tspan></text></g><g id="shape6" transform="translate(420.65,616.54)"><path fill="#000000" fill-opacity="0.08" d="M143.7,56C154.3,56,163,47.4,163,36.7L163,21.3C163,10.6,154.3,2,143.7,2L21.3,2C10.6,2,2,10.6,2,21.3L2,36.7C2,47.4,10.6,56,21.3,56L143.7,56z"/><path fill="url(#lg1)" d="M141.7,54C152.3,54,161,45.4,161,34.7L161,19.3C161,8.6,152.3,0,141.7,0L19.3,0C8.6,0,0,8.6,0,19.3L0,34.7C0,45.4,8.6,54,19.3,54L141.7,54z" stroke="#6d6d6d"/><text class="st1"><tspan y="23" x="26">Show message file </tspan><tspan y="38" x="12">successfully dispatched</tspan></text></g><g id="shape7" transform="translate(645.64,323.78)"><path fill="none" d="M0,0L.2,32.7" stroke="#000000"/><path fill="none" stroke-linecap="round" stroke-linejoin="round" stroke-width="1" d="M6.1,20.6L.2,32.7L-5.9,20.7" stroke="#000000"/></g><g id="shape8" transform="translate(500.65,83.21)"><path fill="none" d="M0,0L0,38.8" stroke="#000000"/><path fill="none" stroke-linecap="round" stroke-linejoin="round" stroke-width="1" d="M6,26.8L0,38.8L-6,26.8" stroke="#000000"/></g><g id="shape9" transform="translate(501.15,670.54)"><path fill="none" d="M0,0L-0.7,36.5" stroke="#000000"/><path fill="none" stroke-linecap="round" stroke-linejoin="round" stroke-width="1" d="M5.5,24.6L-0.7,36.5L-6.5,24.4" stroke="#000000"/></g><g id="shape10" transform="translate(695.89,371.78)"><text class="st1"><tspan y="18" x="10.7">No</tspan></text></g><g id="shape11" transform="translate(325.39,195.45)"><text class="st1"><tspan y="17.5" x="15.3">Approved or not</tspan><tspan y="32.5" x="32.3"> approved</tspan></text></g><g id="shape12" transform="translate(581.39,269.78)"><path fill="#000000" fill-opacity="0.08" d="M115.1,56C123.6,56,130.5,49.1,130.5,40.6L130.5,17.4C130.5,8.9,123.6,2,115.1,2L17.4,2C8.9,2,2,8.9,2,17.4L2,40.6C2,49.1,8.9,56,17.4,56L115.1,56z"/><path fill="url(#lg1)" d="M113.1,54C121.6,54,128.5,47.1,128.5,38.6L128.5,15.4C128.5,6.9,121.6,0,113.1,0L15.4,0C6.9,0,0,6.9,0,15.4L0,38.6C0,47.1,6.9,54,15.4,54L113.1,54z" stroke="#6d6d6d"/><text class="st1"><tspan y="23" x="16.3">Input information </tspan><tspan y="38" x="38.3">about file</tspan></text></g><g id="shape13" transform="translate(558.97,240.78)"><path fill="none" d="M0,0L86.7,0L86.7,29" stroke="#000000"/><path fill="none" stroke-linecap="round" stroke-linejoin="round" stroke-width="1" d="M92.7,17L86.7,29L80.7,17" stroke="#000000"/></g><g id="shape14" transform="translate(442.85,240.78)"><path fill="none" d="M0,0L-121.7,0L-121.7,82.2" stroke="#000000"/><path fill="none" stroke-linecap="round" stroke-linejoin="round" stroke-width="1" d="M-115.7,70.2L-121.7,82.2L-127.7,70.2" stroke="#000000"/></g><g id="shape15" transform="translate(587.77,356.45)"><path fill="#000000" fill-opacity="0.08" d="M60.1,92.6L118.1,47.3L60.1,2L2,47.3L60.1,92.6z"/><path fill="url(#lg1)" d="M58.1,90.6L116.1,45.3L58.1,0L0,45.3L58.1,90.6z" stroke="#6d6d6d"/><text class="st1"><tspan y="33.8" x="29.1">Check all </tspan><tspan y="48.8" x="24.1">information </tspan><tspan y="63.8" x="35.1">entered</tspan></text></g><g id="shape16" transform="translate(703.89,401.78)"><path fill="none" d="M0,0L62,0L62,-105L6,-105" stroke="#000000"/><path fill="none" stroke-linecap="round" stroke-linejoin="round" stroke-width="1" d="M18,-99L6,-105L18,-111" stroke="#000000"/></g><g id="shape17" transform="translate(587.77,209.45)"><text class="st1"><tspan y="18" x="-13.5">Dispatched</tspan></text></g><g transform="translate(652.89,105.95)"><path fill="none" id="shape18" d="M106.5,35.5M106.5,35.5M106.5,35.5M106.5,35.5M106.5,35.5M106.5,35.5M106.5,35.5M106.5,35.5" stroke="#2da2bf"/><g id="shape19"><path fill="none" d="M0,0L0,71L213,71L213,20.7L183.1,0L0,0zM213,20.7L183.1,20.7L183.1,0" stroke="#2da2bf"/><text class="st2"><tspan y="16.5" x="36">File Information contains </tspan><tspan y="31.5" x="9">submitter name, submitter contact </tspan><tspan y="46.5" x="32">number,transporter name, </tspan><tspan y="61.5" x="29">transporter contact number</tspan></text></g></g><path fill="none" id="shape20" transform="translate(759.39,176.95)" d="M0,0L0,60.8L-81.6,60.8L-81.6,92.8" stroke="#000000"/><g id="shape21" transform="translate(500.65,161.65)"><path fill="none" d="M0,0L.3,33.8" stroke="#000000"/><path fill="none" stroke-linecap="round" stroke-linejoin="round" stroke-width="1" d="M6.2,21.8L.3,33.8L-5.8,21.8" stroke="#000000"/></g><g id="shape22" transform="translate(420.91,548)"><path fill="#000000" fill-opacity="0.08" d="M145.3,37.4C155.1,37.4,163,29.5,163,19.7C163,9.9,155.1,2,145.3,2L19.7,2C9.9,2,2,9.9,2,19.7C2,29.5,9.9,37.4,19.7,37.4L145.3,37.4z"/><path fill="url(#lg1)" d="M143.3,35.4C153.1,35.4,161,27.5,161,17.7C161,7.9,153.1,0,143.3,0L17.7,0C7.9,0,0,7.9,0,17.7C0,27.5,7.9,35.4,17.7,35.4L143.3,35.4z" stroke="#6d6d6d"/><text class="st1"><tspan y="21.2" x="34">Dispatch the file</tspan></text></g><g id="shape23" transform="translate(477.6,459.43)"><path fill="#000000" fill-opacity="0.08" d="M25.8,51.8L49.6,26.9L25.8,2L2,26.9L25.8,51.8z"/><path fill="url(#lg1)" d="M23.8,49.8L47.6,24.9L23.8,0L0,24.9L23.8,49.8z" stroke="#6d6d6d"/></g><g id="shape24" transform="translate(501.41,509.26)"><path fill="none" d="M0,0L0,38.7" stroke="#000000"/><path fill="none" stroke-linecap="round" stroke-linejoin="round" stroke-width="1" d="M6,26.7L0,38.7L-6,26.7" stroke="#000000"/></g><g id="shape25" transform="translate(501.41,583.4)"><path fill="none" d="M0,0L-0.3,33.1" stroke="#000000"/><path fill="none" stroke-linecap="round" stroke-linejoin="round" stroke-width="1" d="M5.8,21.2L-0.3,33.1L-6.2,21.1" stroke="#000000"/></g><g id="shape26" transform="translate(645.83,447.1)"><path fill="none" d="M0,0L0,37.2L-120.6,37.2" stroke="#000000"/><path fill="none" stroke-linecap="round" stroke-linejoin="round" stroke-width="1" d="M-108.6,43.2L-120.6,37.2L-108.6,31.2" stroke="#000000"/></g><g id="shape27" transform="translate(543.91,448)"><text class="st1"><tspan y="18" x="8.4">Yes</tspan></text></g><g id="shape28" transform="translate(256.63,323)"><path fill="#000000" fill-opacity="0.08" d="M115.1,56C123.6,56,130.5,49.1,130.5,40.6L130.5,17.4C130.5,8.9,123.6,2,115.1,2L17.4,2C8.9,2,2,8.9,2,17.4L2,40.6C2,49.1,8.9,56,17.4,56L115.1,56z"/><path fill="url(#lg1)" d="M113.1,54C121.6,54,128.5,47.1,128.5,38.6L128.5,15.4C128.5,6.9,121.6,0,113.1,0L15.4,0C6.9,0,0,6.9,0,15.4L0,38.6C0,47.1,6.9,54,15.4,54L113.1,54z" stroke="#6d6d6d"/><text class="st1"><tspan y="15.5" x="25.3">Automatically </tspan><tspan y="30.5" x="13.3">select the created </tspan><tspan y="45.5" x="39.3">file office</tspan></text></g><g id="shape29" transform="translate(320.88,377)"><path fill="none" d="M0,0L0,107.3L156.7,107.3" stroke="#000000"/><path fill="none" stroke-linecap="round" stroke-linejoin="round" stroke-width="1" d="M144.7,101.3L156.7,107.3L144.7,113.3" stroke="#000000"/></g></g></svg>